<?xml version="1.0" standalone="no"?>
<!DOCTYPE svg PUBLIC "-//W3C//DTD SVG 20010904//EN"
 "http://www.w3.org/TR/2001/REC-SVG-20010904/DTD/svg10.dtd">
<svg version="1.0" xmlns="http://www.w3.org/2000/svg"
 width="752.000000pt" height="752.000000pt" viewBox="0 0 752.000000 752.000000"
 preserveAspectRatio="xMidYMid meet">
<metadata>
Created by potrace 1.11, written by Peter Selinger 2001-2013
</metadata>
<g transform="translate(0.000000,752.000000) scale(0.100000,-0.100000)"
fill="#000000" stroke="none">
<path d="M3600 7373 c-30 -8 -63 -16 -72 -18 -9 -2 -27 -9 -40 -16 -13 -8 -25
-13 -28 -14 -7 0 -80 -46 -105 -65 -66 -51 -175 -181 -175 -209 0 -6 -4 -11
-10 -11 -5 0 -10 -8 -10 -17 0 -10 -6 -30 -14 -45 -8 -15 -17 -39 -20 -55 -4
-15 -9 -39 -12 -53 -9 -44 -11 -171 -3 -213 16 -80 19 -92 30 -122 57 -154
168 -279 314 -353 22 -11 42 -20 45 -19 3 0 14 -5 26 -11 11 -6 34 -14 50 -17
45 -9 48 -10 59 -16 14 -7 183 -3 225 5 227 46 408 205 488 431 32 88 36 279
9 365 -19 60 -48 132 -57 140 -3 3 -12 18 -20 34 -16 31 -150 176 -162 176 -4
0 -31 15 -60 34 -121 76 -319 106 -458 69z"/>
<path d="M1396 6262 c-2 -1 -18 -4 -37 -5 -56 -6 -149 -30 -149 -39 0 -4 -7
-8 -15 -8 -34 0 -135 -68 -205 -139 -121 -122 -183 -271 -183 -441 0 -289 180
-529 460 -616 64 -20 93 -23 182 -20 113 4 150 8 194 25 171 66 294 172 367
319 17 34 31 64 31 67 0 2 6 23 14 45 12 33 31 153 28 170 0 3 -3 34 -7 70 -7
81 -44 194 -88 267 -29 48 -113 142 -162 181 -28 22 -159 89 -191 98 -16 4
-32 8 -35 9 -48 13 -196 26 -204 17z"/>
<path d="M6030 6263 c-253 -32 -441 -165 -537 -381 -14 -31 -26 -64 -28 -72
-2 -8 -8 -35 -14 -60 -10 -43 -8 -222 2 -265 30 -119 84 -214 179 -316 46 -49
176 -131 228 -144 8 -2 40 -11 70 -19 53 -14 245 -17 295 -3 67 18 187 74 225
106 85 71 105 91 135 132 162 219 172 506 27 733 -30 46 -119 139 -172 177
-102 75 -291 127 -410 112z"/>
<path d="M2985 6053 c-17 -32 -32 -60 -35 -63 -7 -7 -45 -82 -45 -89 -1 -3
-11 -28 -24 -56 -12 -27 -32 -78 -43 -112 -13 -40 -26 -63 -36 -63 -8 0 -56
13 -106 29 -91 29 -231 62 -275 65 -20 1 -29 -12 -70 -104 -140 -320 -322
-566 -585 -791 -22 -19 -48 -42 -58 -52 -27 -25 -245 -187 -253 -187 -4 0 -13
-7 -21 -15 -13 -13 -8 -28 42 -127 31 -62 65 -125 75 -139 10 -15 19 -32 19
-38 0 -6 5 -11 10 -11 6 0 10 -5 10 -10 0 -6 12 -29 27 -51 l27 -41 -25 -19
c-13 -10 -28 -19 -32 -19 -4 0 -35 -18 -68 -40 -33 -22 -62 -40 -65 -40 -6 0
-127 -92 -147 -112 -10 -10 -29 -25 -42 -34 l-24 -15 45 -86 c60 -112 135
-299 159 -393 2 -8 11 -40 19 -70 24 -85 38 -166 53 -315 9 -89 8 -478 -2
-570 l-7 -70 64 -15 c34 -8 68 -15 73 -17 6 -2 67 -13 136 -26 l126 -22 0
-180 c1 -181 5 -291 14 -299 2 -2 31 -5 64 -7 33 -1 64 -5 70 -8 5 -3 26 -7
47 -8 62 -6 215 -60 303 -107 65 -34 270 -177 295 -205 3 -3 48 -42 100 -86
92 -76 114 -97 263 -236 94 -87 99 -88 136 -31 32 50 156 305 166 342 0 3 10
25 22 50 26 58 95 251 127 360 37 127 58 210 70 281 3 19 8 45 11 59 3 14 7
41 10 60 3 19 7 44 9 55 9 46 18 171 21 287 3 120 2 126 -18 136 -12 5 -58 26
-101 46 -65 30 -131 71 -294 181 -91 61 -237 302 -258 425 -22 131 -18 250 12
364 8 33 17 66 18 72 1 7 19 47 40 90 55 112 150 230 252 314 62 51 222 129
299 146 170 39 343 19 499 -56 238 -115 421 -351 472 -610 11 -56 14 -252 4
-290 -5 -19 -11 -48 -13 -65 -11 -67 -68 -205 -99 -239 -10 -11 -18 -23 -18
-26 0 -9 -30 -44 -83 -98 -56 -58 -199 -151 -317 -208 -52 -25 -102 -49 -110
-53 -12 -6 -14 -28 -12 -112 2 -57 5 -120 7 -139 13 -137 17 -172 26 -225 5
-33 12 -75 15 -94 2 -19 6 -37 9 -41 2 -4 7 -22 10 -41 10 -59 50 -210 63
-244 8 -20 81 -231 86 -250 1 -5 10 -27 19 -49 9 -21 17 -40 17 -43 0 -9 94
-212 142 -308 25 -49 48 -87 74 -123 4 -6 47 20 69 42 53 52 217 200 290 261
44 37 82 71 85 74 3 3 41 33 85 66 44 33 82 62 85 65 33 34 178 114 267 148
112 44 160 54 298 68 33 3 63 9 68 13 10 10 27 306 19 325 -3 4 -5 40 -6 78
-1 79 0 80 84 91 56 8 99 16 125 24 11 3 29 7 40 9 11 2 43 9 70 16 l50 13 -4
85 c-8 145 -6 491 2 570 11 99 19 155 32 219 15 77 80 291 98 326 6 11 12 26
13 33 1 7 30 68 63 137 34 68 61 128 61 132 0 17 -176 147 -298 220 -80 48
-92 59 -86 77 4 11 10 23 14 26 13 9 97 155 140 241 23 46 46 93 52 104 9 15
7 21 -7 30 -9 5 -55 38 -102 73 -47 34 -87 62 -90 62 -3 0 -15 10 -27 23 -12
12 -37 34 -57 49 -44 33 -167 147 -228 212 -25 27 -60 63 -77 81 -32 33 -175
228 -187 255 -8 17 -38 67 -63 105 -9 14 -12 25 -8 25 5 0 4 4 -2 8 -11 8 -45
77 -89 182 -15 36 -30 68 -33 72 -4 4 -27 3 -52 -2 -25 -4 -58 -11 -75 -13
-39 -7 -199 -53 -247 -72 -38 -15 -38 -15 -44 13 -4 15 -11 33 -17 40 -5 6 -7
12 -4 12 5 0 -29 105 -61 185 -42 106 -83 185 -96 185 -7 0 -39 -9 -72 -19
-54 -18 -79 -24 -142 -36 -13 -2 -32 -7 -42 -10 -10 -3 -31 -8 -46 -10 -16 -2
-38 -6 -49 -8 -21 -5 -69 -12 -145 -23 -182 -25 -469 -23 -610 6 -30 6 -70 13
-89 16 -43 7 -50 9 -141 34 -41 11 -83 22 -92 25 -9 2 -26 8 -37 14 -35 19
-46 12 -76 -46z"/>
<path d="M769 3736 c-2 -2 -31 -6 -64 -7 -224 -10 -430 -145 -529 -345 -65
-129 -69 -146 -70 -294 0 -82 3 -106 22 -180 72 -269 352 -468 638 -453 73 3
180 27 222 49 15 8 33 14 40 14 6 0 12 5 12 10 0 6 5 10 12 10 14 0 103 67
145 109 39 39 123 164 123 183 0 8 5 19 12 26 7 7 9 12 6 12 -4 0 -1 12 7 27
8 15 12 30 9 35 -3 4 -2 8 3 8 15 0 22 173 10 260 -8 61 -40 151 -78 216 -28
50 -122 155 -175 195 -68 52 -236 115 -304 114 -14 0 -28 3 -31 8 -3 4 -7 5
-10 3z"/>
<path d="M6638 3715 c-64 -16 -168 -58 -168 -67 0 -5 -6 -8 -13 -8 -18 0 -50
-25 -121 -95 -70 -69 -106 -114 -106 -132 0 -7 -5 -13 -12 -13 -6 0 -9 -3 -5
-6 3 -3 -3 -21 -13 -39 -20 -35 -38 -95 -48 -155 -8 -47 -7 -188 2 -225 4 -16
9 -41 12 -54 3 -14 7 -28 10 -33 3 -4 7 -16 9 -26 6 -36 89 -161 139 -213 59
-61 148 -121 214 -144 26 -10 56 -21 67 -25 37 -16 132 -27 204 -24 147 6 295
68 406 171 35 32 105 117 105 127 0 4 9 19 21 35 11 15 22 34 23 42 2 8 8 27
15 44 26 64 39 160 35 255 -6 120 -6 120 -16 120 -4 0 -8 10 -8 23 0 13 -5 28
-12 35 -7 7 -9 12 -5 12 9 0 -36 91 -66 135 -64 91 -219 213 -297 232 -14 3
-29 9 -35 13 -40 29 -248 38 -337 15z"/>
<path d="M1990 1644 c-87 -16 -201 -65 -270 -116 -46 -35 -140 -131 -140 -145
0 -7 -4 -13 -8 -13 -10 0 -70 -119 -83 -164 -30 -102 -32 -277 -4 -371 19 -64
61 -148 102 -203 49 -65 156 -162 179 -162 7 0 14 -3 16 -7 5 -14 100 -52 168
-69 87 -22 198 -22 300 -1 157 33 340 178 414 328 20 41 38 82 39 90 2 8 5 19
9 24 26 43 29 254 4 330 -1 6 -6 24 -10 40 -23 91 -120 235 -199 297 -23 18
-44 35 -47 38 -15 16 -134 72 -186 86 -57 16 -232 27 -284 18z"/>
<path d="M5370 1647 c-3 -3 -23 -7 -45 -10 -105 -15 -227 -80 -321 -172 -65
-64 -144 -178 -144 -209 0 -6 -4 -16 -9 -21 -15 -16 -39 -145 -40 -215 -1 -57
3 -88 25 -190 29 -138 187 -325 324 -387 14 -6 43 -19 65 -29 80 -36 237 -49
345 -30 121 22 252 97 352 201 35 36 106 150 114 180 4 17 11 36 17 43 5 6 6
12 3 12 -4 0 -2 8 3 19 15 26 24 94 24 176 0 72 -4 101 -28 190 -9 32 -45 117
-54 125 -4 3 -12 17 -20 33 -21 39 -117 137 -174 176 -99 68 -218 105 -347
110 -47 1 -87 0 -90 -2z"/>
</g>
</svg>
