[{
    "title": "Our Vision",
    "content": "Building sustainable Communities",
    "logo": "vision.png"
  },
  {
    "title": "Our Mission",
    "content": "Build and support Free and open source software Communities ",
    "logo": "mission.png"
  },
  {
    "title": "Our Objectives",
    "content": "Create an ecosystem for free and open source developers to learn and grow. ",
    "logo": "objectives.png"
  }
]
