[
  {
    "title": "Pycon India 2019",
    "place": "Chennai, India.",
    "date": "12th-15th October 2019",
    "url": "https://in.pycon.org/2019/"
  },
  {
    "title": "Pycon India 2018",
    "place": "Hyderabad, India.",
    "date": "5th-9th October 2018",
    "url": "https://in.pycon.org/2018/"
  },
  {
    "title": "Pycon India 2017",
    "place": "Delhi-NCR, India.",
    "date": "4th-5th November 2017",
    "url": "https://in.pycon.org/2017/"
  }
]
