[{
    "url": "https://cdn.worldvectorlogo.com/logos/microsoft.svg",
    "alt": "I love you nature"
  },
  {
    "url": "https://cdn.worldvectorlogo.com/logos/microsoft.svg",
    "alt": "Now with dog - Rosé"
  },
  {
    "url": "https://cdn.worldvectorlogo.com/logos/microsoft.svg",
    "alt": "Jeg er i Danmark"
  },
  {
    "url": "https://cdn.worldvectorlogo.com/logos/microsoft.svg",
    "alt": "Badabimbadabum"
  },
  {
    "url": "https://cdn.worldvectorlogo.com/logos/microsoft.svg",
    "alt": "Goodmorning el mundo"
  },
  {
    "url": "https://cdn.worldvectorlogo.com/logos/microsoft.svg",
    "alt": "My white and rosé with paella"
  },
  {
    "url": "https://cdn.worldvectorlogo.com/logos/microsoft.svg",
    "alt": "Hopla"
  },
  {
    "url": "https://cdn.worldvectorlogo.com/logos/microsoft.svg",
    "alt": "Watering by night"
  },
  {
    "url": "https://cdn.worldvectorlogo.com/logos/microsoft.svg",
    "alt": "Life aint so bad at all..."
  },
  {
    "url": "https://cdn.worldvectorlogo.com/logos/microsoft.svg",
    "alt": "My whitewine"
  },
  {
    "url": "https://cdn.worldvectorlogo.com/logos/microsoft.svg",
    "alt": "First time for everything...winefair!"
  },
  {
    "url": "https://cdn.worldvectorlogo.com/logos/microsoft.svg",
    "alt": "Lost around 20% of this years yield!"
  }
]
