[{
    "url": "/",
    "content": "Home"
  },
  {
    "url": "/about-us",
    "content": "About Us"
  },
  {
    "url": "/services",
    "content": "Services"
  },
  {
    "url": "/events",
    "content": "Events"
  },
  {
    "url": "/membership",
    "content": "Memberships"
  }
]
